<?xml version="1.0" encoding="UTF-8" standalone="no"?>
<svg
   xmlns:dc="http://purl.org/dc/elements/1.1/"
   xmlns:cc="http://creativecommons.org/ns#"
   xmlns:rdf="http://www.w3.org/1999/02/22-rdf-syntax-ns#"
   xmlns:svg="http://www.w3.org/2000/svg"
   xmlns="http://www.w3.org/2000/svg"
   xmlns:sodipodi="http://sodipodi.sourceforge.net/DTD/sodipodi-0.dtd"
   xmlns:inkscape="http://www.inkscape.org/namespaces/inkscape"
   width="210mm"
   height="71mm"
   viewBox="0 0 210 71"
   version="1.1"
   id="svg8"
   inkscape:version="0.92.4 (5da689c313, 2019-01-14)"
   sodipodi:docname="du-rose.svg">
  <defs
     id="defs2" />
  <sodipodi:namedview
     id="base"
     pagecolor="#ffffff"
     bordercolor="#666666"
     borderopacity="1.0"
     inkscape:pageopacity="0.0"
     inkscape:pageshadow="2"
     inkscape:zoom="1.4"
     inkscape:cx="494.57679"
     inkscape:cy="677.93553"
     inkscape:document-units="mm"
     inkscape:current-layer="layer1"
     showgrid="false"
     inkscape:window-width="3840"
     inkscape:window-height="1961"
     inkscape:window-x="0"
     inkscape:window-y="57"
     inkscape:window-maximized="1" />
  <metadata
     id="metadata5">
    <rdf:RDF>
      <cc:Work
         rdf:about="">
        <dc:format>image/svg+xml</dc:format>
        <dc:type
           rdf:resource="http://purl.org/dc/dcmitype/StillImage" />
        <dc:title></dc:title>
      </cc:Work>
    </rdf:RDF>
  </metadata>
  <g
     inkscape:label="Layer 1"
     inkscape:groupmode="layer"
     id="layer1">
    <text
       xml:space="preserve"
       style="font-style:normal;font-weight:normal;font-size:7px;line-height:1.25;font-family:sans-serif;letter-spacing:0px;word-spacing:0px;fill:#c8c8c8;fill-opacity:1;stroke:none;stroke-width:0.21213016;"
       x="6.8144369"
       y="20.417627"
       id="text817"
       transform="scale(0.8930159,1.1198009)">
       
        <tspan
         sodipodi:role="line"
         x="7"
         y="10"
         style="stroke-width:0.21213016"
         id="tspan10">Kontakt
 
        </tspan>
        <tspan
         sodipodi:role="line"
         x="7"
         y="19"
         style="stroke-width:0.21213016"
         id="tspan19">                       
        </tspan>
        <tspan
         sodipodi:role="line"
         x="7"
         y="28"
         style="stroke-width:0.21213016"
         id="tspan28">   Peter Koppatz
 
        </tspan>
        <tspan
         sodipodi:role="line"
         x="7"
         y="37"
         style="stroke-width:0.21213016"
         id="tspan37">   Schmergerber Weg 92a
 
        </tspan>
        <tspan
         sodipodi:role="line"
         x="7"
         y="46"
         style="stroke-width:0.21213016"
         id="tspan46">   14548 Schwielowsee/Caputh
 
        </tspan>
        <tspan
         sodipodi:role="line"
         x="7"
         y="55"
         style="stroke-width:0.21213016"
         id="tspan55">   kurse@koppatz.com
 
        </tspan>
    </text>
  </g>
</svg>
